{
  "clientId": "b9e56bbc-2458-4054-87be-8cb14b1b4424",
  "clientSecret": "bf43727f-291c-4f72-a149-81ec6eb8f09f",
  "mdlpSystemId": "93744a01-f49f-4b80-9324-59d24f53b570",
  "mdlpSystemName": "Utrace"
}