00452805500000000000
     00867862690000000001
          0135821860521292212756192700000
          0135821860521292210854513500001
          0135821860521292218346517900002
     00262759690000000002
          0135821860521292218409340100003
          0135821860521292210939610900004
          0135821860521292219797658200005
