00902967180000000000
     00470556160000000001
          0135821860521292215873863700000
          0135821860521292215265168300001
          0135821860521292216638177900002
     00201858200000000002
          0135821860521292215024935400003
          0135821860521292214598169700004
          0135821860521292212618362800005
