0152090330002942215147281500000
0152090330002942211033314000001
0152090330002942212650073100002
0152090330002942219645495400003
0152090330002942211337504300004
0152090330002942217878990800005
0152090330002942214609311900006
0152090330002942217663718300007
0152090330002942214437368900008
0152090330002942215445726400009
