<?xml version="1.0" encoding="UTF-8"?><documents version="1.34">
  <multi_pack action_id="915">
    <subject_id>00000000103090</subject_id>
    <operation_date>2020-07-24T07:40:11Z</operation_date>
    <by_sscc>
      <detail>
        <sscc>389687410000000000</sscc>
        <content>
          <sscc>155670440000000003</sscc>
          <sscc>209881810000000000</sscc>
          <sscc>882940870000000005</sscc>
          <sscc>156071240000000008</sscc>
          <sscc>949914580000000001</sscc>
          <sscc>914058900000000009</sscc>
          <sscc>990998010000000007</sscc>
          <sscc>400051350000000002</sscc>
          <sscc>225438810000000006</sscc>
          <sscc>890338970000000004</sscc>
        </content>
      </detail>
    </by_sscc>
  </multi_pack>
</documents>
