0133386962996492211312678800000
0133386962996492218515563300001
0133386962996492210629115000002
0133386962996492215860960900003
0133386962996492213267689300004
0133386962996492216143113700005
0133386962996492210256629000006
0133386962996492215333043100007
0133386962996492212802065000008
0133386962996492213126180300009
