00013204090000000000
     00218614500000000001
          0135821860521292211400556100000
          0135821860521292218405129300001
          0135821860521292215076270200002
     00422788520000000002
          0135821860521292210924478700003
          0135821860521292216030270400004
          0135821860521292219556755400005
