00559825080000000000
     00862037660000000001
          0135821860521292213645216600000
          0135821860521292213128104900001
          0135821860521292214062764400002
     00402719720000000002
          0135821860521292217736920400003
          0135821860521292218576302700004
          0135821860521292211181418700005
