00335186150000000000
     0135821860521292214608466700000
     0135821860521292217200669600001
     0135821860521292215950019800002
00835904730000000001
     0135821860521292219863132900003
     0135821860521292212210075500004
     0135821860521292216913045800005
