00652528240000000000
     00840274220000000001
          0135821860521292218760483300000
          0135821860521292213270848900001
          0135821860521292210356189000002
          0135821860521292219371153500003
     00569057030000000002
          0135821860521292216580165300004
          0135821860521292211101362000005
          0135821860521292213366223800006
          0135821860521292210935148300007
     00322277030000000003
          0135821860521292210435688700008
          0135821860521292213320887800009
          0135821860521292216115155600010
          0135821860521292214818145100011
00044544080000000004
     00878989650000000005
          0135821860521292218946533800012
          0135821860521292211400519400013
          0135821860521292212018006900014
          0135821860521292218752659300015
     00360972730000000006
          0135821860521292210462710600016
          0135821860521292217091115100017
          0135821860521292217812548900018
          0135821860521292211049206400019
     00591965880000000007
          0135821860521292212775803100020
          0135821860521292216996990700021
          0135821860521292213450286100022
          0135821860521292217483589300023
