0185758503407294211950197800000
0185758503407294218195808200001
0185758503407294210230519000002
0185758503407294215655485100003
0185758503407294213553003200004
0185758503407294212653074900005
0185758503407294211850109400006
0185758503407294213666124300007
0185758503407294215935403200008
0185758503407294211530037900009
