00941636070000000000
     00329332590000000001
          0135821860521292213823005200000
          0135821860521292210416223500001
          0135821860521292213953680000002
     00481566920000000002
          0135821860521292218397243600003
          0135821860521292216918286500004
          0135821860521292217267746000005
00896899360000000003
     00608409610000000004
          0135821860521292214778937900006
          0135821860521292216396204200007
          0135821860521292219265027500008
     00839849590000000005
          0135821860521292218894318400009
          0135821860521292219489415700010
          0135821860521292215507917400011
