00099971150000000000
     00245915160000000001
          0135821860521292219285717600000
          0135821860521292218501129300001
          0135821860521292218271395100002
     00432152820000000002
          0135821860521292214223890800003
          0135821860521292210511556900004
          0135821860521292216317532200005
