00542152130000000000
     0135821860521292213512312700000
     0135821860521292214970152300001
     0135821860521292211538044700002
00479657420000000001
     0135821860521292218086664200003
     0135821860521292210243974000004
     0135821860521292215214011200005
