00873487330000000000
00697043810000000001
00803253100000000002
00132805400000000003
00223810180000000004
00647919650000000005
00465900210000000006
00190963740000000007
00822347680000000008
00701218150000000009
