00304560670000000000
     0135821860521292211661255200000
     0135821860521292212429156200001
     0135821860521292213657399500002
00308977550000000001
     0135821860521292217906300600003
     0135821860521292216821119700004
     0135821860521292211147189400005
