00528132250000000000
     00319206700000000001
          0135821860521292212319080300000
          0135821860521292215131098400001
          0135821860521292216575445800002
          0135821860521292212366716500003
     00571191070000000002
          0135821860521292216802712300004
          0135821860521292211323876700005
          0135821860521292217741548900006
          0135821860521292218700136000007
     00064769280000000003
          0135821860521292210274019000008
          0135821860521292218895845000009
          0135821860521292214633450400010
          0135821860521292218957739300011
     00898201450000000004
          0135821860521292215214956300012
          0135821860521292215959287000013
          0135821860521292212960845200014
          0135821860521292217051561700015
00486902310000000005
     00647795040000000006
          0135821860521292214082956600016
          0135821860521292216416365900017
          0135821860521292213354434400018
          0135821860521292219692881300019
     00038885030000000007
          0135821860521292213743673800020
          0135821860521292213772382600021
          0135821860521292218683779400022
          0135821860521292217604272900023
     00641305120000000008
          0135821860521292217068117500024
          0135821860521292210312649900025
          0135821860521292212626447800026
          0135821860521292215158904500027
     00692470840000000009
          0135821860521292212503968700028
          0135821860521292216284611100029
          0135821860521292213583574900030
          0135821860521292214513402800031
