00528774130000000000
     00010491520000000001
          0135821860521292218062838300000
          0135821860521292215215976700001
          0135821860521292217712274600002
     00877354880000000002
          0135821860521292215674864900003
          0135821860521292212474620000004
          0135821860521292213416741500005
