00089072530000000000
     00523865360000000001
          0135821860521292219646939800000
          0135821860521292217553972400001
          0135821860521292216511007500002
     00474834540000000002
          0135821860521292219355816300003
          0135821860521292218005391300004
          0135821860521292210343829400005
