<?xml version="1.0" encoding="UTF-8"?><documents version="1.34">
  <accept action_id="701">
    <subject_id>00000000103090</subject_id>
    <counterparty_id>00000000100859</counterparty_id>
    <operation_date>2020-07-24T10:16:09Z</operation_date>
    <confirm_paused>true</confirm_paused>
    <order_details>
      <sgtin>389774571415620374669500009</sgtin>
      <sgtin>389774571415620494405800004</sgtin>
      <sgtin>389774571415620991280100010</sgtin>
      <sgtin>389774571415622316886600006</sgtin>
      <sgtin>389774571415623216148200007</sgtin>
      <sgtin>389774571415623947102900000</sgtin>
      <sgtin>389774571415626121027700001</sgtin>
      <sgtin>389774571415626758022500003</sgtin>
      <sgtin>389774571415627094473400005</sgtin>
      <sgtin>389774571415629490380000002</sgtin>
      <sgtin>389774571415629517748100008</sgtin>
    </order_details>
  </accept>
</documents>
