00580685300000000000
     00203202410000000001
          0135821860521292214586553500000
          0135821860521292219162392100001
          0135821860521292212474770900002
     00086734590000000002
          0135821860521292213532795900003
          0135821860521292216393426200004
          0135821860521292219220194100005
