00259460190000000000
     00742130970000000001
          0135821860521292215575461700000
          0135821860521292218531836300001
          0135821860521292216755364000002
     00467921170000000002
          0135821860521292213714533200003
          0135821860521292218064199300004
          0135821860521292214344131200005
