0189899582946407213547721700000
0189899582946407211424912700001
0189899582946407210889527100002
0189899582946407210912197800003
0189899582946407211845255800004
0189899582946407217223694300005
0189899582946407212014394300006
0189899582946407212519744700007
0189899582946407219881340600008
0189899582946407217734438600009
