<?xml version="1.0" encoding="UTF-8"?><documents version="1.34">
  <multi_pack action_id="915">
    <subject_id>00000000103090</subject_id>
    <operation_date>2020-07-24T07:38:11Z</operation_date>
    <by_sgtin>
      <detail>
        <sscc>077793840000000000</sscc>
        <content>
          <sgtin>037617215011623002610300009</sgtin>
          <sgtin>037617215011622768226100006</sgtin>
          <sgtin>037617215011620045528500004</sgtin>
          <sgtin>037617215011624921076000001</sgtin>
          <sgtin>037617215011625854469600005</sgtin>
          <sgtin>037617215011623130602800007</sgtin>
          <sgtin>037617215011629837225800008</sgtin>
          <sgtin>037617215011628130190400002</sgtin>
          <sgtin>037617215011626452601000003</sgtin>
          <sgtin>037617215011628933047000000</sgtin>
        </content>
      </detail>
    </by_sgtin>
  </multi_pack>
</documents>
