0115516984689258218969006200000
0115516984689258212212651800001
0115516984689258218347176000002
0115516984689258213402239300003
0115516984689258213203279700004
0115516984689258213790009100005
0115516984689258212094670300006
0115516984689258212108688500007
0115516984689258217849515200008
0115516984689258212149594500009
0115516984689258214915414400010
