<?xml version="1.0" encoding="UTF-8"?><documents version="1.34">
  <multi_pack action_id="915">
    <subject_id>00000000103090</subject_id>
    <operation_date>2020-07-24T07:37:59Z</operation_date>
    <by_sgtin>
      <detail>
        <sscc>825627160000000000</sscc>
        <content>
          <sgtin>594883177733841928135500004</sgtin>
          <sgtin>594883177733842776038100002</sgtin>
          <sgtin>594883177733845996005300005</sgtin>
          <sgtin>594883177733846499458100000</sgtin>
          <sgtin>594883177733847178867100001</sgtin>
          <sgtin>594883177733840705825600003</sgtin>
          <sgtin>594883177733843984669300006</sgtin>
          <sgtin>594883177733844821394400007</sgtin>
          <sgtin>594883177733845944136900008</sgtin>
          <sgtin>594883177733840715423900009</sgtin>
        </content>
      </detail>
    </by_sgtin>
  </multi_pack>
</documents>
