00535795380000000000
     00104385250000000001
          0135821860521292219454832500000
          0135821860521292214130576300001
     00567844790000000002
          0135821860521292213672787500002
          0135821860521292212074534600003
