00262458570000000000
     00433570000000000001
          0135821860521292211223527800000
          0135821860521292219784658900001
          0135821860521292210236476000002
     00207739410000000002
          0135821860521292217248767300003
          0135821860521292215428266800004
          0135821860521292216300609700005
