00680661810000000000
     0135821860521292212106286500000
     0135821860521292213371528400001
     0135821860521292213665160600002
00716573680000000001
     0135821860521292218379438800003
     0135821860521292217522766600004
     0135821860521292217473060800005
