00996320490000000000
     00772568930000000001
          0135821860521292214717136500000
          0135821860521292216875431200001
     00001718520000000002
          0135821860521292218000379300002
          0135821860521292210277675700003
00891320290000000003
     00760071680000000004
          0135821860521292210043197400004
          0135821860521292210928497000005
     00371912530000000005
          0135821860521292214341449300006
          0135821860521292210742962600007
