00588770640000000000
     00235524650000000001
          0135821860521292216605478500000
          0135821860521292216394518000001
          0135821860521292219132812300002
     00567786550000000002
          0135821860521292213622727800003
          0135821860521292216720999000004
          0135821860521292217137011500005
