0193940195001588217161482000000
0193940195001588215478503300001
0193940195001588215984625000002
0193940195001588211232389200003
0193940195001588218178914300004
0193940195001588213347321700005
0193940195001588213495699400006
0193940195001588211619035000007
0193940195001588214495061100008
0193940195001588210923894300009
