00005598960000000000
     00448912370000000001
          0135821860521292214230579400000
          0135821860521292211197274900001
          0135821860521292211674143300002
     00882737410000000002
          0135821860521292212217253500003
          0135821860521292212962947700004
          0135821860521292216088261600005
