0156220368377921219761233800000
0156220368377921210787524000001
0156220368377921217219987500002
0156220368377921214999312400003
0156220368377921215930423600004
0156220368377921216513621600005
0156220368377921217571517900006
0156220368377921217901701300007
0156220368377921217626272200008
0156220368377921219210350900009
0156220368377921218351006900010
