00920740500000000000
     00442544140000000001
          0135821860521292215971121900000
          0135821860521292215588112500001
          0135821860521292212809440800002
     00534085370000000002
          0135821860521292219069820700003
          0135821860521292214034193100004
          0135821860521292213691097700005
