0169758106159753210228719500000
0169758106159753211838563900001
0169758106159753216786903200002
0169758106159753214782828800003
0169758106159753217937194400004
0169758106159753212691516400005
0169758106159753214120538100006
0169758106159753217934041500007
0169758106159753211396478000008
0169758106159753219680627400009
