00777753640000000000
     00728147910000000001
          0135821860521292212411418600000
          0135821860521292211722778000001
          0135821860521292213339263400002
          0135821860521292210227721300003
     00862571130000000002
          0135821860521292216730669600004
          0135821860521292219404172400005
          0135821860521292217878938600006
          0135821860521292213347125800007
     00578623760000000003
          0135821860521292214558232000008
          0135821860521292215977116000009
          0135821860521292211525272300010
          0135821860521292212408882000011
     00060775250000000004
          0135821860521292211696676400012
          0135821860521292210183495300013
          0135821860521292211167643000014
          0135821860521292214356042500015
00713100020000000005
     00920959530000000006
          0135821860521292212471635800016
          0135821860521292213688488600017
          0135821860521292217236858000018
          0135821860521292211092804800019
     00184467620000000007
          0135821860521292218828799100020
          0135821860521292217945901900021
          0135821860521292218075573400022
          0135821860521292210169159700023
     00608907740000000008
          0135821860521292210427821900024
          0135821860521292214829370000025
          0135821860521292217099647200026
          0135821860521292217192696300027
     00999635750000000009
          0135821860521292210205571300028
          0135821860521292218067042300029
          0135821860521292213262595800030
          0135821860521292215765504100031
