0158151462001749218069275500000
0158151462001749212251094700001
0158151462001749218827581300002
0158151462001749215698744900003
0158151462001749215807688000004
0158151462001749211603041200005
0158151462001749219055940700006
0158151462001749212185083600007
0158151462001749218120487200008
0158151462001749212582561200009
