00987602120000000000
     00049329580000000001
          0135821860521292210763606100000
          0135821860521292210157658400001
          0135821860521292218214472000002
     00924813280000000002
          0135821860521292215195717000003
          0135821860521292213948131600004
          0135821860521292214782299200005
