00707523530000000000
     00875807800000000001
          0135821860521292219980089500000
          0135821860521292211174166900001
          0135821860521292210176556100002
     00845704560000000002
          0135821860521292214616695000003
          0135821860521292216256269400004
          0135821860521292215662583400005
