00207550510000000000
     00122409320000000001
          0135821860521292210342158600000
          0135821860521292210007517700001
          0135821860521292216955543200002
     00865845950000000002
          0135821860521292214044031500003
          0135821860521292215971087600004
          0135821860521292219173951900005
