00635083030000000000
     0135821860521292215331572200000
     0135821860521292215244396100001
     0135821860521292216883034800002
     0135821860521292210371849000003
00295204490000000001
     0135821860521292217956340200004
     0135821860521292217772944100005
     0135821860521292214970737800006
     0135821860521292218884388800007
00750511890000000002
     0135821860521292210229572400008
     0135821860521292218743238800009
     0135821860521292218238518400010
     0135821860521292214951110000011
