00202732160000000000
     0135821860521292218404034600000
     0135821860521292217678291100001
     0135821860521292218439098900002
00935318920000000001
     0135821860521292212517257300003
     0135821860521292217460210000004
     0135821860521292211508555300005
