00050082960000000000
     00017593170000000001
          0135821860521292212705711500000
          0135821860521292215057847800001
          0135821860521292213460623300002
     00569643100000000002
          0135821860521292213568071400003
          0135821860521292214713386800004
          0135821860521292218846747200005
