0139529639459023213114897500000
0139529639459023218170373700001
0139529639459023212331907200002
0139529639459023214563165500003
0139529639459023216558164400004
0139529639459023210529194000005
0139529639459023218569604500006
0139529639459023211241469300007
0139529639459023219494518500008
0139529639459023210583407700009
0139529639459023214381242400010
