00311491570000000000
     00792548760000000001
          0135821860521292211130105900000
          0135821860521292219053369000001
          0135821860521292215104729000002
     00060929090000000002
          0135821860521292214448021300003
          0135821860521292210104474800004
          0135821860521292218453038600005
