0118253655015916217416804700000
0118253655015916216454773500001
0118253655015916215104680200002
0118253655015916210860142700003
0118253655015916216594052700004
0118253655015916217116714000005
0118253655015916213533652900006
0118253655015916213602391400007
0118253655015916219040675400008
0118253655015916213873854600009
