<?xml version="1.0" encoding="UTF-8"?><documents version="1.34">
  <multi_pack action_id="915">
    <subject_id>00000000103090</subject_id>
    <operation_date>2020-07-24T10:52:49Z</operation_date>
    <by_sscc>
      <detail>
        <sscc>195852830000000000</sscc>
        <content>
          <sscc>390261170000000006</sscc>
          <sscc>299173300000000001</sscc>
          <sscc>838244220000000005</sscc>
          <sscc>321056930000000008</sscc>
          <sscc>142067150000000004</sscc>
          <sscc>143673430000000009</sscc>
          <sscc>409220520000000000</sscc>
          <sscc>348061630000000003</sscc>
          <sscc>721428240000000002</sscc>
          <sscc>765860360000000007</sscc>
        </content>
      </detail>
    </by_sscc>
  </multi_pack>
</documents>
