00622575830000000000
     00353276650000000001
          0135821860521292217510893000000
          0135821860521292216547101700001
          0135821860521292215060721800002
     00235126340000000002
          0135821860521292210637042900003
          0135821860521292214199685600004
          0135821860521292211434799100005
