00748958310000000000
     00657916260000000001
          0135821860521292214274381400000
          0135821860521292210914757400001
     00976160590000000002
          0135821860521292213460543800002
          0135821860521292217657169300003
