00923421010000000000
     00713071860000000001
          0135821860521292210998569500000
          0135821860521292210628048800001
          0135821860521292210793561700002
     00477904370000000002
          0135821860521292216674843700003
          0135821860521292210104622000004
          0135821860521292218877411400005
