00014458850000000000
     00467205250000000001
          0135821860521292218637250500000
          0135821860521292210140272700001
          0135821860521292217817225300002
     00607808150000000002
          0135821860521292217141523800003
          0135821860521292212821138700004
          0135821860521292212872457900005
