00755556660000000000
     0135821860521292212081606600000
     0135821860521292213265902800001
     0135821860521292210253159600002
     0135821860521292216154330700003
00982121100000000001
     0135821860521292212153697400004
     0135821860521292218352894000005
     0135821860521292212316024800006
     0135821860521292210618281900007
00904395040000000002
     0135821860521292214066952200008
     0135821860521292214064146500009
     0135821860521292210094495600010
     0135821860521292211511763900011
