00496368340000000000
     00154126700000000001
          0135821860521292217066989600000
          0135821860521292210935754000001
          0135821860521292219819972700002
     00888133910000000002
          0135821860521292218348937300003
          0135821860521292212531513800004
          0135821860521292210320015800005
