00058080150000000000
     00651321680000000001
          0135821860521292211865337900000
          0135821860521292217373151900001
          0135821860521292214417753400002
     00852768700000000002
          0135821860521292219324373500003
          0135821860521292215435205300004
          0135821860521292211244723700005
