00037258470000000000
     0135821860521292216489759500000
     0135821860521292217559871600001
     0135821860521292210256459200002
00965536380000000001
     0135821860521292216735794000003
     0135821860521292210791135200004
     0135821860521292219623225300005
