00519949550000000000
     00873589450000000001
          0135821860521292216648549600000
          0135821860521292210790311400001
          0135821860521292211694565400002
     00909628530000000002
          0135821860521292218492870700003
          0135821860521292214158351400004
          0135821860521292211401268400005
