<?xml version="1.0" encoding="UTF-8"?><documents version="1.34">
  <accept action_id="701">
    <subject_id>00000000103090</subject_id>
    <counterparty_id>00000000100859</counterparty_id>
    <operation_date>2020-07-24T07:35:16Z</operation_date>
    <confirm_paused>false</confirm_paused>
    <order_details>
      <sgtin>655058338993930120470100001</sgtin>
      <sgtin>655058338993930331763000000</sgtin>
      <sgtin>655058338993930918024500008</sgtin>
      <sgtin>655058338993930987511000010</sgtin>
      <sgtin>655058338993931646060900007</sgtin>
      <sgtin>655058338993932276769300005</sgtin>
      <sgtin>655058338993933813101600006</sgtin>
      <sgtin>655058338993937296209900002</sgtin>
      <sgtin>655058338993937915149600003</sgtin>
      <sgtin>655058338993938593859700009</sgtin>
      <sgtin>655058338993939281437200004</sgtin>
    </order_details>
  </accept>
</documents>
