00966646880000000000
     00958949950000000001
          0135821860521292215956654300000
          0135821860521292213888999200001
          0135821860521292219107137000002
     00519411390000000002
          0135821860521292212450370500003
          0135821860521292210349518600004
          0135821860521292219263514900005
