<?xml version="1.0" encoding="UTF-8"?><documents version="1.34">
  <multi_pack action_id="915">
    <subject_id>00000000103090</subject_id>
    <operation_date>2020-07-24T07:38:58Z</operation_date>
    <by_sgtin>
      <detail>
        <sscc>245678520000000000</sscc>
        <content>
          <sgtin>085108800772813916965400006</sgtin>
          <sgtin>085108800772811835989700002</sgtin>
          <sgtin>085108800772814612233500008</sgtin>
          <sgtin>085108800772815024078200003</sgtin>
          <sgtin>085108800772813429626900004</sgtin>
          <sgtin>085108800772813504286800007</sgtin>
          <sgtin>085108800772816482231500000</sgtin>
          <sgtin>085108800772814773541500005</sgtin>
          <sgtin>085108800772817010793400009</sgtin>
          <sgtin>085108800772813325528300001</sgtin>
        </content>
      </detail>
    </by_sgtin>
  </multi_pack>
</documents>
