<?xml version="1.0" encoding="UTF-8"?><documents version="1.34">
  <multi_pack action_id="915">
    <subject_id>00000000103090</subject_id>
    <operation_date>2020-07-24T07:40:26Z</operation_date>
    <by_sscc>
      <detail>
        <sscc>146373640000000000</sscc>
        <content>
          <sscc>142205920000000005</sscc>
          <sscc>936886680000000009</sscc>
          <sscc>370350630000000007</sscc>
          <sscc>483027970000000000</sscc>
          <sscc>758323880000000002</sscc>
          <sscc>041771820000000003</sscc>
          <sscc>152791990000000008</sscc>
          <sscc>496781540000000004</sscc>
          <sscc>204546680000000001</sscc>
          <sscc>557598030000000006</sscc>
        </content>
      </detail>
    </by_sscc>
  </multi_pack>
</documents>
