00363082950000000000
     00000682930000000001
          0135821860521292215029555900000
          0135821860521292211650672200001
          0135821860521292213929438800002
     00945143120000000002
          0135821860521292219510859800003
          0135821860521292218017555900004
          0135821860521292216320143700005
