0109527915125060211676521300000
0109527915125060212015278500001
0109527915125060213624889600002
0109527915125060213902307600003
0109527915125060212853851100004
0109527915125060218806625500005
0109527915125060211067837000006
0109527915125060216986723400007
0109527915125060217471547600008
0109527915125060211669510900009
