00727763760000000000
     00557899610000000001
          0135821860521292215001801300000
          0135821860521292212547997100001
     00343360730000000002
          0135821860521292213977500200002
          0135821860521292213588248800003
00621758300000000003
     00721410860000000004
          0135821860521292210904304500004
          0135821860521292215514662900005
     00411154830000000005
          0135821860521292216920406900006
          0135821860521292215602183500007
