00043948650000000000
     00607210090000000001
          0135821860521292216524243900000
          0135821860521292217582828700001
          0135821860521292210001513100002
     00298325620000000002
          0135821860521292210796849000003
          0135821860521292214592511100004
          0135821860521292211409544500005
