00275963000000000000
     00773187870000000001
          0135821860521292212535615500000
          0135821860521292210587499100001
          0135821860521292218692560900002
     00695524740000000002
          0135821860521292217592460400003
          0135821860521292211947136700004
          0135821860521292212955995500005
