00269338870000000000
     0135821860521292219490511000000
     0135821860521292211122902700001
     0135821860521292212669986800002
     0135821860521292214240472700003
00215971090000000001
     0135821860521292211903098500004
     0135821860521292217142474700005
     0135821860521292213326206200006
     0135821860521292215349140600007
00786602210000000002
     0135821860521292217563319800008
     0135821860521292214193903000009
     0135821860521292214508686300010
     0135821860521292216223318300011
