0125125658179853214658132400000
0125125658179853217155942100001
0125125658179853210008425000002
0125125658179853213588614900003
0125125658179853211133971100004
0125125658179853215330095700005
0125125658179853214047753300006
0125125658179853210630973400007
0125125658179853215550565800008
0125125658179853217301222800009
