0180924835503390210875652000000
0180924835503390215329085700001
0180924835503390219078377700002
0180924835503390216439573600003
0180924835503390213763276200004
0180924835503390213667011600005
0180924835503390213647068700006
0180924835503390217426921600007
0180924835503390210553592500008
0180924835503390218109318300009
0180924835503390212294912700010
