0121865106945850211562468200000
0121865106945850213821299000001
0121865106945850214276928500002
0121865106945850218855149300003
0121865106945850212058415600004
0121865106945850219995997900005
0121865106945850216735030000006
0121865106945850211436546000007
0121865106945850213073443500008
0121865106945850215514430700009
0121865106945850218391053700010
