00353168640000000000
     00487157240000000001
          0135821860521292217283843600000
          0135821860521292216647381400001
          0135821860521292211936110400002
     00079454580000000002
          0135821860521292217503804100003
          0135821860521292216066533800004
          0135821860521292211552586200005
