00402175830000000000
     00139791490000000001
          0135821860521292215660236500000
          0135821860521292212701575900001
          0135821860521292212945119500002
     00267391060000000002
          0135821860521292213836181500003
          0135821860521292217049364300004
          0135821860521292216736509700005
