00332627280000000000
     00743147610000000001
          0135821860521292219930615200000
          0135821860521292218429901000001
          0135821860521292214058861300002
     00873292110000000002
          0135821860521292218093903800003
          0135821860521292217956266600004
          0135821860521292217108818400005
