00131873150000000000
     00358732660000000001
          0135821860521292215605836700000
          0135821860521292214040923300001
          0135821860521292218544986100002
          0135821860521292219187961200003
     00649325210000000002
          0135821860521292211175942300004
          0135821860521292218892565400005
          0135821860521292216033248900006
          0135821860521292219500379100007
     00035487660000000003
          0135821860521292219253277900008
          0135821860521292219599528000009
          0135821860521292214106553400010
          0135821860521292214821588100011
