00130125670000000000
     00050198510000000001
          0135821860521292212066642100000
          0135821860521292218979497200001
          0135821860521292217796170700002
     00739965100000000002
          0135821860521292215337420000003
          0135821860521292219068214600004
          0135821860521292218392139900005
