00345290320000000000
     00206448700000000001
          0135821860521292211520947100000
          0135821860521292213417144300001
          0135821860521292212459578300002
          0135821860521292211975834600003
          0135821860521292212142831400004
     00580572980000000002
          0135821860521292210402096500005
          0135821860521292217577833600006
          0135821860521292213911209900007
          0135821860521292213520054300008
          0135821860521292219197795800009
     00875222350000000003
          0135821860521292214253957200010
          0135821860521292212153223600011
          0135821860521292211299833200012
          0135821860521292212771033100013
          0135821860521292211868642600014
