00448667580000000000
     00200704320000000001
          0135821860521292214323615100000
          0135821860521292218421233700001
     00710151760000000002
          0135821860521292217355729100002
          0135821860521292213803218000003
00418701390000000003
     00380092750000000004
          0135821860521292211983616200004
          0135821860521292215496149200005
     00719498410000000005
          0135821860521292212449070500006
          0135821860521292214005253700007
