<?xml version="1.0" encoding="UTF-8"?><documents version="1.34">
  <multi_pack action_id="915">
    <subject_id>00000000103090</subject_id>
    <operation_date>2020-07-24T07:38:05Z</operation_date>
    <by_sgtin>
      <detail>
        <sscc>402272520000000000</sscc>
        <content>
          <sgtin>435375430112074078109100001</sgtin>
          <sgtin>435375430112070590355400005</sgtin>
          <sgtin>435375430112070384515600009</sgtin>
          <sgtin>435375430112077742331400004</sgtin>
          <sgtin>435375430112078288550000000</sgtin>
          <sgtin>435375430112071562077700007</sgtin>
          <sgtin>435375430112077659433500002</sgtin>
          <sgtin>435375430112078489420900006</sgtin>
          <sgtin>435375430112079495418600003</sgtin>
          <sgtin>435375430112072379659700008</sgtin>
        </content>
      </detail>
    </by_sgtin>
  </multi_pack>
</documents>
