<?xml version="1.0" encoding="UTF-8"?><documents version="1.34">
  <multi_pack action_id="915">
    <subject_id>00000000103090</subject_id>
    <operation_date>2020-07-24T10:50:49Z</operation_date>
    <by_sscc>
      <detail>
        <sscc>563238620000000000</sscc>
        <content>
          <sscc>139209140000000006</sscc>
          <sscc>001817900000000007</sscc>
          <sscc>844978820000000003</sscc>
          <sscc>743309650000000002</sscc>
          <sscc>626735580000000004</sscc>
          <sscc>798332610000000001</sscc>
          <sscc>438319320000000009</sscc>
          <sscc>322451250000000008</sscc>
          <sscc>537936180000000005</sscc>
          <sscc>152625690000000000</sscc>
        </content>
      </detail>
    </by_sscc>
  </multi_pack>
</documents>
