00325713980000000000
     0135821860521292217170050200000
     0135821860521292210411629600001
     0135821860521292219851428500002
     0135821860521292215879211500003
00730013030000000001
     0135821860521292210040994100004
     0135821860521292211092080300005
     0135821860521292213061313000006
     0135821860521292212021644400007
00696941410000000002
     0135821860521292215590220300008
     0135821860521292218370331600009
     0135821860521292212333512900010
     0135821860521292218031576000011
