0164029340863520210136058500000
0164029340863520216472802000001
0164029340863520216906695700002
0164029340863520216764317000003
0164029340863520215415893700004
0164029340863520210161302600005
0164029340863520216700444800006
0164029340863520217375570800007
0164029340863520214266865800008
0164029340863520212183527800009
0164029340863520216589418700010
