00453298800000000000
     00062990080000000001
          0135821860521292218221463600000
          0135821860521292219100799800001
          0135821860521292213961242200002
     00452174720000000002
          0135821860521292217943329300003
          0135821860521292213555541300004
          0135821860521292213779648200005
