00987927470000000000
     00516377060000000001
          0135821860521292210530227500000
          0135821860521292216118693600001
          0135821860521292212400393600002
     00427811100000000002
          0135821860521292211916765500003
          0135821860521292215794894700004
          0135821860521292219494008200005
00241240510000000003
     00541768430000000004
          0135821860521292211787350200006
          0135821860521292213205819700007
          0135821860521292215856783900008
     00009870830000000005
          0135821860521292217125427600009
          0135821860521292216626331200010
          0135821860521292211055467600011
