00347969750000000000
     00721808260000000001
          0135821860521292210323158500000
          0135821860521292212459867100001
          0135821860521292210268632800002
          0135821860521292214187615600003
     00490651260000000002
          0135821860521292212444148300004
          0135821860521292217086770700005
          0135821860521292214780732600006
          0135821860521292210689105600007
     00855618080000000003
          0135821860521292212088178700008
          0135821860521292218720143100009
          0135821860521292218328934400010
          0135821860521292218201457400011
