<?xml version="1.0" encoding="UTF-8"?><documents version="1.34">
  <accept action_id="701">
    <subject_id>00000000103090</subject_id>
    <counterparty_id>00000000100859</counterparty_id>
    <operation_date>2020-07-24T10:18:19Z</operation_date>
    <confirm_paused>false</confirm_paused>
    <order_details>
      <sgtin>218651069458501436546000007</sgtin>
      <sgtin>218651069458501562468200000</sgtin>
      <sgtin>218651069458502058415600004</sgtin>
      <sgtin>218651069458503073443500008</sgtin>
      <sgtin>218651069458503821299000001</sgtin>
      <sgtin>218651069458504276928500002</sgtin>
      <sgtin>218651069458505514430700009</sgtin>
      <sgtin>218651069458506735030000006</sgtin>
      <sgtin>218651069458508391053700010</sgtin>
      <sgtin>218651069458508855149300003</sgtin>
      <sgtin>218651069458509995997900005</sgtin>
    </order_details>
  </accept>
</documents>
