00863909330000000000
     00485946230000000001
          0135821860521292218468673400000
          0135821860521292219873949400001
          0135821860521292214104002000002
     00715323430000000002
          0135821860521292211965784200003
          0135821860521292213499623800004
          0135821860521292219716499800005
00649274670000000003
     00495701950000000004
          0135821860521292218039821700006
          0135821860521292212850392400007
          0135821860521292216312949200008
     00439365780000000005
          0135821860521292214462253100009
          0135821860521292215643000700010
          0135821860521292217362057300011
