00732669590000000000
     00618284910000000001
          0135821860521292212187484100000
          0135821860521292216447730300001
          0135821860521292215386760700002
     00269781350000000002
          0135821860521292214867978400003
          0135821860521292211773042100004
          0135821860521292213162305600005
