00025140460000000000
     00401257810000000001
          0135821860521292216363932700000
          0135821860521292212171132700001
          0135821860521292213515460300002
     00578555100000000002
          0135821860521292212453082300003
          0135821860521292217251854100004
          0135821860521292214232139000005
