00515660360000000000
     00286965200000000001
          0135821860521292216548935300000
          0135821860521292214283077200001
          0135821860521292210989192700002
     00238049370000000002
          0135821860521292211115971900003
          0135821860521292211947370300004
          0135821860521292212827782600005
