0109328021115528217759475600000
0109328021115528212403627300001
0109328021115528216351803000002
0109328021115528215115715800003
0109328021115528219657363400004
0109328021115528218791564700005
0109328021115528215831132100006
0109328021115528213075143100007
0109328021115528212567721000008
0109328021115528214606406300009
