00301918760000000000
     00717843840000000001
          0135821860521292216291175500000
          0135821860521292218116803700001
          0135821860521292218904040100002
     00043554440000000002
          0135821860521292218933023400003
          0135821860521292217681171800004
          0135821860521292217906956900005
