00988499800000000000
     00882648290000000001
          0135821860521292213380079700000
          0135821860521292219765188900001
          0135821860521292216514289400002
     00827859100000000002
          0135821860521292219776134800003
          0135821860521292219963845500004
          0135821860521292217595891200005
