00984546890000000000
     00116204710000000001
          0135821860521292216146930600000
          0135821860521292219555697700001
     00332957260000000002
          0135821860521292214181733300002
          0135821860521292215434771900003
00364822180000000003
     00984019180000000004
          0135821860521292219713518000004
          0135821860521292218468536500005
     00762574560000000005
          0135821860521292210999683200006
          0135821860521292216808764500007
