00011817570000000000
     00672303440000000001
          0135821860521292211651158300000
          0135821860521292212573820800001
          0135821860521292218427450700002
          0135821860521292212458540600003
     00340522330000000002
          0135821860521292216862680700004
          0135821860521292219097042600005
          0135821860521292219065203300006
          0135821860521292210074920900007
     00517319420000000003
          0135821860521292218288910200008
          0135821860521292210626287100009
          0135821860521292210653384500010
          0135821860521292215092491000011
00072019990000000004
     00701862510000000005
          0135821860521292212557397400012
          0135821860521292210588882100013
          0135821860521292210963368300014
          0135821860521292215546187500015
     00079382230000000006
          0135821860521292215770046300016
          0135821860521292217478947000017
          0135821860521292211953166600018
          0135821860521292217177905700019
     00946827110000000007
          0135821860521292213643411100020
          0135821860521292217697849400021
          0135821860521292217760625200022
          0135821860521292217041306000023
