00033316180000000000
     00332109200000000001
          0135821860521292214375651300000
          0135821860521292210483408200001
          0135821860521292217908631800002
     00558044320000000002
          0135821860521292215553368400003
          0135821860521292215373262700004
          0135821860521292216005846100005
