00658642190000000000
     00352939550000000001
          0135821860521292211945447300000
          0135821860521292214018096700001
          0135821860521292210594734800002
     00380284730000000002
          0135821860521292219330208100003
          0135821860521292215098429800004
          0135821860521292211769762900005
