<?xml version="1.0" encoding="UTF-8"?><documents version="1.34">
  <multi_pack action_id="915">
    <subject_id>00000000103090</subject_id>
    <operation_date>2020-07-24T07:38:32Z</operation_date>
    <by_sgtin>
      <detail>
        <sscc>771972700000000000</sscc>
        <content>
          <sgtin>016927537873236106244800008</sgtin>
          <sgtin>016927537873233079216100004</sgtin>
          <sgtin>016927537873235970303200006</sgtin>
          <sgtin>016927537873236398667100005</sgtin>
          <sgtin>016927537873235483508600003</sgtin>
          <sgtin>016927537873236785216200002</sgtin>
          <sgtin>016927537873239547376700001</sgtin>
          <sgtin>016927537873239431084300000</sgtin>
          <sgtin>016927537873238468056000007</sgtin>
          <sgtin>016927537873234687784400009</sgtin>
        </content>
      </detail>
    </by_sgtin>
  </multi_pack>
</documents>
