<?xml version="1.0" encoding="UTF-8"?><documents version="1.34">
  <multi_pack action_id="915">
    <subject_id>00000000103090</subject_id>
    <operation_date>2020-07-24T10:39:04Z</operation_date>
    <by_sgtin>
      <detail>
        <sscc>291421580000000000</sscc>
        <content>
          <sgtin>089749330580386381539500000</sgtin>
          <sgtin>089749330580383109026600004</sgtin>
          <sgtin>089749330580384954831000008</sgtin>
          <sgtin>089749330580383492516500006</sgtin>
          <sgtin>089749330580386310636200009</sgtin>
          <sgtin>089749330580383260316100002</sgtin>
          <sgtin>089749330580381572556100005</sgtin>
          <sgtin>089749330580384124034800001</sgtin>
          <sgtin>089749330580389797257000007</sgtin>
          <sgtin>089749330580387141210000003</sgtin>
        </content>
      </detail>
    </by_sgtin>
  </multi_pack>
</documents>
