<?xml version="1.0" encoding="UTF-8"?><documents version="1.34">
  <accept action_id="701">
    <subject_id>00000000103090</subject_id>
    <counterparty_id>00000000100859</counterparty_id>
    <operation_date>2020-07-24T07:35:11Z</operation_date>
    <confirm_paused>true</confirm_paused>
    <order_details>
      <sgtin>117376997914241615911400010</sgtin>
      <sgtin>117376997914241977659400000</sgtin>
      <sgtin>117376997914242060726600005</sgtin>
      <sgtin>117376997914243901681000003</sgtin>
      <sgtin>117376997914245774244700007</sgtin>
      <sgtin>117376997914245835306500009</sgtin>
      <sgtin>117376997914245845869500002</sgtin>
      <sgtin>117376997914247435330900008</sgtin>
      <sgtin>117376997914248094211100004</sgtin>
      <sgtin>117376997914248811435900001</sgtin>
      <sgtin>117376997914249308062100006</sgtin>
    </order_details>
  </accept>
</documents>
