00334861090000000000
00723222200000000001
00048927740000000002
00488094320000000003
00689423840000000004
00560020010000000005
00590482180000000006
00695294880000000007
00613711670000000008
00417289350000000009
