00028849630000000000
     00841850850000000001
          0135821860521292215423455300000
          0135821860521292216270986800001
          0135821860521292211159042900002
     00478444760000000002
          0135821860521292218211174800003
          0135821860521292218386136400004
          0135821860521292214882351600005
