<?xml version="1.0" encoding="UTF-8"?><documents version="1.34">
  <accept action_id="701">
    <subject_id>00000000103090</subject_id>
    <counterparty_id>00000000100859</counterparty_id>
    <operation_date>2020-07-24T10:15:44Z</operation_date>
    <confirm_paused>true</confirm_paused>
    <order_details>
      <sgtin>505588166946000518561700000</sgtin>
      <sgtin>505588166946002988992700007</sgtin>
      <sgtin>505588166946003072704800003</sgtin>
      <sgtin>505588166946003823961600002</sgtin>
      <sgtin>505588166946005007143600008</sgtin>
      <sgtin>505588166946005705974500006</sgtin>
      <sgtin>505588166946006246083200001</sgtin>
      <sgtin>505588166946006595303300010</sgtin>
      <sgtin>505588166946009180694900004</sgtin>
      <sgtin>505588166946009303411900009</sgtin>
      <sgtin>505588166946009756657500005</sgtin>
    </order_details>
  </accept>
</documents>
