00832049130000000000
     00629552080000000001
          0135821860521292219940705500000
          0135821860521292210728047000001
          0135821860521292216280860400002
     00351575420000000002
          0135821860521292214487350800003
          0135821860521292211695727900004
          0135821860521292219444741200005
