00766951540000000000
     00411458650000000001
          0135821860521292217236373600000
          0135821860521292218062006400001
          0135821860521292211980525800002
     00312761880000000002
          0135821860521292214478581600003
          0135821860521292216547643200004
          0135821860521292216682002000005
