00715916860000000000
     00062166870000000001
          0135821860521292216405059900000
          0135821860521292210317250800001
          0135821860521292218817025000002
     00902697570000000002
          0135821860521292216361959500003
          0135821860521292214575760800004
          0135821860521292219602811200005
