00501386430000000000
     00509700860000000001
          0135821860521292213158718500000
          0135821860521292210057704900001
          0135821860521292214766349400002
     00105968130000000002
          0135821860521292217258805600003
          0135821860521292218124720800004
          0135821860521292215008672900005
