0153514531707652216640676400000
0153514531707652219737773600001
0153514531707652219526401400002
0153514531707652212096388600003
0153514531707652211996456900004
0153514531707652214885985500005
0153514531707652218488510500006
0153514531707652219608063800007
0153514531707652219652099100008
0153514531707652211192520100009
0153514531707652213131744200010
