00125270870000000000
     00116442760000000001
          0135821860521292214895644100000
          0135821860521292212999682700001
          0135821860521292218084505700002
          0135821860521292217985773100003
     00730103460000000002
          0135821860521292214174071800004
          0135821860521292215335492000005
          0135821860521292214451438700006
          0135821860521292218243793200007
     00061113440000000003
          0135821860521292213207108000008
          0135821860521292217674229200009
          0135821860521292219073466100010
          0135821860521292213731409600011
00785837000000000004
     00359367350000000005
          0135821860521292213725932600012
          0135821860521292216729683600013
          0135821860521292217859365300014
          0135821860521292215417110700015
     00780512800000000006
          0135821860521292212484780100016
          0135821860521292216413408900017
          0135821860521292214649074700018
          0135821860521292214937400300019
     00472900990000000007
          0135821860521292218413254200020
          0135821860521292213670208400021
          0135821860521292215237217700022
          0135821860521292211343694000023
