00531524180000000000
     00583175920000000001
          0135821860521292211160332800000
          0135821860521292210015399900001
          0135821860521292215807527000002
     00836189960000000002
          0135821860521292216550815900003
          0135821860521292211408887200004
          0135821860521292216349527200005
