00005812420000000000
     00029526640000000001
          0135821860521292219943768400000
          0135821860521292211547887600001
          0135821860521292210671709100002
          0135821860521292213204649900003
     00127466300000000002
          0135821860521292212649536200004
          0135821860521292216262973600005
          0135821860521292215640615400006
          0135821860521292211488751800007
     00759766020000000003
          0135821860521292216934612800008
          0135821860521292212170692400009
          0135821860521292215490130100010
          0135821860521292214061851800011
     00463863670000000004
          0135821860521292214971988200012
          0135821860521292211402942900013
          0135821860521292211928539200014
          0135821860521292217966657000015
00660132500000000005
     00428933120000000006
          0135821860521292216429377300016
          0135821860521292213109020300017
          0135821860521292212891116000018
          0135821860521292211004779800019
     00870846030000000007
          0135821860521292213559123800020
          0135821860521292219346575400021
          0135821860521292211428507700022
          0135821860521292217184863300023
     00980570140000000008
          0135821860521292219919639200024
          0135821860521292219121882900025
          0135821860521292210373482500026
          0135821860521292217842289400027
     00760168400000000009
          0135821860521292213961456900028
          0135821860521292216327752500029
          0135821860521292214397001200030
          0135821860521292216667628800031
