<?xml version="1.0" encoding="UTF-8"?><documents version="1.34">
  <foreign_import_owner action_id="333">
    <subject_id>541e8082-7a29-4677-80cb-2786a2124b41</subject_id>
    <seller_id>ecfbccf0-d4f9-47ab-8d66-f616e1f27388</seller_id>
    <custom_receiver_id>0f504426-6635-4236-4c5a-0167d8e1c2fe</custom_receiver_id>
    <operation_date>2020-07-24T07:30:37Z</operation_date>
    <contract_type>7</contract_type>
    <doc_num>20200724-0130</doc_num>
    <doc_date>15.05.2020</doc_date>
    <order_details>
      <sgtin>088863274004801908225200003</sgtin>
      <sgtin>088863274004802633319000004</sgtin>
      <sgtin>088863274004803527070900000</sgtin>
      <sgtin>088863274004808507673400001</sgtin>
      <sgtin>088863274004808820456800002</sgtin>
    </order_details>
  </foreign_import_owner>
</documents>
