00053332840000000000
     00207882630000000001
          0135821860521292217900228700000
          0135821860521292216990837800001
          0135821860521292210978753900002
     00436218630000000002
          0135821860521292218772989300003
          0135821860521292211460267300004
          0135821860521292212785301700005
