00282941450000000000
     00350125240000000001
          0135821860521292215147131600000
          0135821860521292217271593200001
     00616829860000000002
          0135821860521292213528100400002
          0135821860521292218943941600003
00563050600000000003
     00244767430000000004
          0135821860521292215971932200004
          0135821860521292210936683300005
     00640876170000000005
          0135821860521292217987074600006
          0135821860521292211416715400007
