<?xml version="1.0" encoding="UTF-8"?><documents version="1.34">
  <multi_pack action_id="915">
    <subject_id>00000000103090</subject_id>
    <operation_date>2020-07-24T10:33:57Z</operation_date>
    <by_sgtin>
      <detail>
        <sscc>788902040000000000</sscc>
        <content>
          <sgtin>172949852148096906803900007</sgtin>
          <sgtin>172949852148091754605200006</sgtin>
          <sgtin>172949852148096906364200008</sgtin>
          <sgtin>172949852148094084830700001</sgtin>
          <sgtin>172949852148091513850700004</sgtin>
          <sgtin>172949852148091697166500000</sgtin>
          <sgtin>172949852148096059185000009</sgtin>
          <sgtin>172949852148099398260300002</sgtin>
          <sgtin>172949852148093777783800005</sgtin>
          <sgtin>172949852148093021738600003</sgtin>
        </content>
      </detail>
    </by_sgtin>
  </multi_pack>
</documents>
