00298953740000000000
     00073249120000000001
          0135821860521292214573369500000
          0135821860521292218038181500001
          0135821860521292213651931700002
     00311763230000000002
          0135821860521292211372333300003
          0135821860521292215762000400004
          0135821860521292217661143800005
