00730567390000000000
     00945657070000000001
          0135821860521292216837375600000
          0135821860521292218275247900001
          0135821860521292212996837200002
     00506441470000000002
          0135821860521292214333608300003
          0135821860521292210347271700004
          0135821860521292216797779500005
