00124313110000000000
     00275184470000000001
          0135821860521292218173777900000
          0135821860521292219949332000001
     00282418460000000002
          0135821860521292214461843800002
          0135821860521292215045482800003
00349806260000000003
     00422426290000000004
          0135821860521292215834311500004
          0135821860521292212943170900005
     00637930510000000005
          0135821860521292211465289300006
          0135821860521292216311890800007
