00903712150000000000
     00203761430000000001
          0135821860521292212373030100000
          0135821860521292219777536800001
     00782929770000000002
          0135821860521292211072571300002
          0135821860521292218540667500003
