00875485620000000000
     00217204700000000001
          0135821860521292210843363300000
          0135821860521292216545322500001
     00759015620000000002
          0135821860521292219492330700002
          0135821860521292216860164900003
