{
  "clientId": "fa87a0d5-233c-46ad-afd0-cf5b02936bd9",
  "clientSecret": "9cd2b13c-dffb-4820-9dda-cb2552fef9a1",
  "mdlpSystemId": "f9b8016b-0d0b-41ba-ade3-9e31f7df0bd1",
  "mdlpSystemName": "tracekeeper"
}