0102913925364006212834745900000
0102913925364006211654435900001
0102913925364006219137019600002
0102913925364006211401440500003
0102913925364006217003342900004
0102913925364006213106083600005
0102913925364006213954744100006
0102913925364006213752405200007
0102913925364006215198315300008
0102913925364006212136585500009
