00444439270000000000
00536089760000000001
00931677260000000002
00923640910000000003
00223583910000000004
00514242600000000005
00214392710000000006
00159832580000000007
00533616900000000008
00187565350000000009
