0175783509240920211109778600000
0175783509240920210325226300001
0175783509240920216180519900002
0175783509240920213350994200003
0175783509240920218664596800004
0175783509240920214374567900005
0175783509240920211319870000006
0175783509240920219927834600007
0175783509240920217618171500008
0175783509240920214220497800009
0175783509240920215234198700010
