00814106750000000000
     00829995910000000001
          0135821860521292215081766100000
          0135821860521292215447313000001
     00189749530000000002
          0135821860521292219341980100002
          0135821860521292219913699900003
