00359168260000000000
     00132440970000000001
          0135821860521292212716972200000
          0135821860521292213902465200001
          0135821860521292213704277300002
     00711083900000000002
          0135821860521292213267578600003
          0135821860521292218864283400004
          0135821860521292211470220100005
