00068093270000000000
     0135821860521292218380945500000
     0135821860521292214209841200001
     0135821860521292213324673000002
     0135821860521292218731706600003
00232092410000000001
     0135821860521292219981333700004
     0135821860521292218172169900005
     0135821860521292210369734200006
     0135821860521292214661116700007
00580581870000000002
     0135821860521292210902276800008
     0135821860521292212119104700009
     0135821860521292213311481300010
     0135821860521292212183672400011
