00913611550000000000
     00340287680000000001
          0135821860521292215532524300000
          0135821860521292218831987100001
          0135821860521292214919232400002
     00980744370000000002
          0135821860521292218366649100003
          0135821860521292215180400600004
          0135821860521292216123757300005
