0149514313849706210297403200000
0149514313849706218846772700001
0149514313849706215531304300002
0149514313849706216425882300003
0149514313849706216927879500004
0149514313849706213930903000005
0149514313849706219377619100006
0149514313849706214580505800007
0149514313849706218741940700008
0149514313849706212751546500009
