0149126511216045219538820100000
0149126511216045219894425700001
0149126511216045210276233300002
0149126511216045217350360800003
0149126511216045213374199500004
0149126511216045210070609400005
0149126511216045214454324800006
0149126511216045218433473000007
0149126511216045212645788500008
0149126511216045213078248800009
0149126511216045211827579100010
