00225397840000000000
     00249852980000000001
          0135821860521292217871369700000
          0135821860521292211883394600001
          0135821860521292210412237100002
     00884827910000000002
          0135821860521292214512470300003
          0135821860521292213723165600004
          0135821860521292210826934800005
