00160657370000000000
     00912701300000000001
          0135821860521292210190732900000
          0135821860521292215292916600001
     00749601640000000002
          0135821860521292215912562800002
          0135821860521292216056042600003
00992117240000000003
     00011964420000000004
          0135821860521292214062576200004
          0135821860521292216648845800005
     00747902450000000005
          0135821860521292218059539100006
          0135821860521292214688209700007
