00051472960000000000
     00392891970000000001
          0135821860521292219172004300000
          0135821860521292219842204100001
          0135821860521292213532794900002
     00708201290000000002
          0135821860521292218854181800003
          0135821860521292214083797400004
          0135821860521292217003268600005
