0191160081880427211067344800000
0191160081880427211513428900001
0191160081880427218179106700002
0191160081880427218841692900003
0191160081880427214398030100004
0191160081880427211520928700005
0191160081880427210570083000006
0191160081880427216766478400007
0191160081880427218413932200008
0191160081880427218553314900009
