0188402333635961210575465900000
0188402333635961210780405900001
0188402333635961212762602100002
0188402333635961211520584600003
0188402333635961219794608100004
0188402333635961213106448200005
0188402333635961213304093000006
0188402333635961219544641100007
0188402333635961218218146200008
0188402333635961219870298900009
