00743305950000000000
     00074663180000000001
          0135821860521292219988117700000
          0135821860521292219337022200001
          0135821860521292213043030700002
     00920050200000000002
          0135821860521292216942153000003
          0135821860521292211856295900004
          0135821860521292212028008300005
00741511010000000003
     00160992460000000004
          0135821860521292214943712700006
          0135821860521292218113675400007
          0135821860521292217216214100008
     00244330610000000005
          0135821860521292216761478300009
          0135821860521292218937504800010
          0135821860521292212423566600011
