00016479130000000000
     00118786630000000001
          0135821860521292219878418100000
          0135821860521292219200980100001
          0135821860521292214714209800002
     00747129820000000002
          0135821860521292213297547100003
          0135821860521292212580060900004
          0135821860521292217302822000005
00722524030000000003
     00489687140000000004
          0135821860521292217706529400006
          0135821860521292214381712200007
          0135821860521292213553355200008
     00349188220000000005
          0135821860521292218442629300009
          0135821860521292210310797200010
          0135821860521292218851396400011
