00432005630000000000
     0135821860521292215487234700000
     0135821860521292217021027800001
     0135821860521292211914621500002
00296810390000000001
     0135821860521292215758423300003
     0135821860521292214025270400004
     0135821860521292219488665500005
