00400458980000000000
     00586814080000000001
          0135821860521292219725587800000
          0135821860521292214769703000001
          0135821860521292218316345200002
     00431900360000000002
          0135821860521292211105752800003
          0135821860521292218484812400004
          0135821860521292211798244500005
