00747664680000000000
     00618225860000000001
          0135821860521292212292115300000
          0135821860521292211938538800001
          0135821860521292216260067100002
     00884466390000000002
          0135821860521292211618916300003
          0135821860521292210498016500004
          0135821860521292216207365200005
