<?xml version="1.0" encoding="UTF-8"?><documents version="1.34">
  <multi_pack action_id="915">
    <subject_id>00000000103090</subject_id>
    <operation_date>2020-07-24T07:38:25Z</operation_date>
    <by_sgtin>
      <detail>
        <sscc>678730970000000000</sscc>
        <content>
          <sgtin>928125836152390586220200006</sgtin>
          <sgtin>928125836152392216313600000</sgtin>
          <sgtin>928125836152393392952300004</sgtin>
          <sgtin>928125836152391371707200003</sgtin>
          <sgtin>928125836152398558655000008</sgtin>
          <sgtin>928125836152390232681200005</sgtin>
          <sgtin>928125836152396106523400009</sgtin>
          <sgtin>928125836152396479100100002</sgtin>
          <sgtin>928125836152393325283800007</sgtin>
          <sgtin>928125836152396007960400001</sgtin>
        </content>
      </detail>
    </by_sgtin>
  </multi_pack>
</documents>
