00267766300000000000
     00424642050000000001
          0135821860521292212689804700000
          0135821860521292217078285800001
          0135821860521292213336461100002
     00934520410000000002
          0135821860521292210148089600003
          0135821860521292210012030400004
          0135821860521292219355899100005
