00389152170000000000
     00201514090000000001
          0135821860521292211244925600000
          0135821860521292215770141400001
          0135821860521292213690117800002
     00424844310000000002
          0135821860521292210859721400003
          0135821860521292216455077900004
          0135821860521292211160884700005
