0170762181871862211406927300000
0170762181871862212477216400001
0170762181871862217705904800002
0170762181871862211711622200003
0170762181871862219772456600004
0170762181871862219081626700005
0170762181871862213777044700006
0170762181871862213055181200007
0170762181871862218104936700008
0170762181871862214466198300009
