00605205170000000000
     0135821860521292213909148200000
     0135821860521292215122327200001
     0135821860521292212879029600002
     0135821860521292212358874800003
00103838680000000001
     0135821860521292211810834700004
     0135821860521292218886078600005
     0135821860521292218607313500006
     0135821860521292217654542600007
00766559860000000002
     0135821860521292213471424900008
     0135821860521292216480312100009
     0135821860521292211735459400010
     0135821860521292214994127400011
