00374567340000000000
     00192699840000000001
          0135821860521292210620606500000
          0135821860521292218323890300001
          0135821860521292214726738300002
     00005161210000000002
          0135821860521292211390394700003
          0135821860521292219961367600004
          0135821860521292216059780200005
