00028107910000000000
     0135821860521292217080079000000
     0135821860521292215804324600001
     0135821860521292217437562700002
00109168180000000001
     0135821860521292218653352900003
     0135821860521292210668348500004
     0135821860521292213234753800005
