00209881810000000000
00949914580000000001
00400051350000000002
00155670440000000003
00890338970000000004
00882940870000000005
00225438810000000006
00990998010000000007
00156071240000000008
00914058900000000009
