00759564510000000000
     0135821860521292210596355800000
     0135821860521292216747347500001
     0135821860521292219247588500002
     0135821860521292210246819600003
     0135821860521292212395180500004
00080259390000000001
     0135821860521292210205122000005
     0135821860521292218592383400006
     0135821860521292211737973700007
     0135821860521292210808420200008
     0135821860521292211423612600009
00281556300000000002
     0135821860521292215998077700010
     0135821860521292219140826100011
     0135821860521292215740759800012
     0135821860521292217396107500013
     0135821860521292215923272700014
