00808461210000000000
     00051682550000000001
          0135821860521292219112962200000
          0135821860521292211543428500001
          0135821860521292217175386800002
     00699008020000000002
          0135821860521292219545081100003
          0135821860521292216320443100004
          0135821860521292213039476700005
