00501407780000000000
     0135821860521292210594507300000
     0135821860521292210172807400001
     0135821860521292217994832300002
00649833930000000001
     0135821860521292210631796900003
     0135821860521292217864425500004
     0135821860521292219428052800005
