00754445640000000000
     00204172570000000001
          0135821860521292213243041500000
          0135821860521292216186875500001
          0135821860521292219547730500002
     00086335880000000002
          0135821860521292212341676300003
          0135821860521292214184438500004
          0135821860521292212341384600005
00654291570000000003
     00005778510000000004
          0135821860521292210843295600006
          0135821860521292213847673200007
          0135821860521292211191484900008
     00965269020000000005
          0135821860521292212076804700009
          0135821860521292211238103100010
          0135821860521292214876158200011
