<?xml version="1.0" encoding="UTF-8"?><documents version="1.34">
  <accept action_id="701">
    <subject_id>00000000103090</subject_id>
    <counterparty_id>00000000100859</counterparty_id>
    <operation_date>2020-07-24T07:35:29Z</operation_date>
    <confirm_paused>true</confirm_paused>
    <order_details>
      <sgtin>756989716561630053025800002</sgtin>
      <sgtin>756989716561630764103400005</sgtin>
      <sgtin>756989716561631805777800008</sgtin>
      <sgtin>756989716561632017914100010</sgtin>
      <sgtin>756989716561632099118300004</sgtin>
      <sgtin>756989716561633578008900003</sgtin>
      <sgtin>756989716561634042461000007</sgtin>
      <sgtin>756989716561635104267400001</sgtin>
      <sgtin>756989716561635690474200000</sgtin>
      <sgtin>756989716561638543901100009</sgtin>
      <sgtin>756989716561638895830300006</sgtin>
    </order_details>
  </accept>
</documents>
