00871868600000000000
     0135821860521292214608572800000
     0135821860521292210867761200001
     0135821860521292212278952600002
     0135821860521292217724995400003
00916223240000000001
     0135821860521292212729893200004
     0135821860521292216935813600005
     0135821860521292218314923300006
     0135821860521292215189080600007
00053400750000000002
     0135821860521292212128484100008
     0135821860521292213968700900009
     0135821860521292217439198500010
     0135821860521292216523611000011
