00063935540000000000
     0135821860521292216627444600000
     0135821860521292219783770000001
     0135821860521292215366337400002
00099361120000000001
     0135821860521292219327728200003
     0135821860521292216396360500004
     0135821860521292210121014100005
