00468530160000000000
     00510717070000000001
          0135821860521292212716788200000
          0135821860521292218251867300001
     00432164530000000002
          0135821860521292214595470800002
          0135821860521292211268128100003
00246194240000000003
     00880341580000000004
          0135821860521292214025787500004
          0135821860521292210005278300005
     00217232910000000005
          0135821860521292212663352400006
          0135821860521292217205349600007
