00658103290000000000
     00533575860000000001
          0135821860521292211321539000000
          0135821860521292216292731900001
          0135821860521292219583160100002
     00621314340000000002
          0135821860521292215691240100003
          0135821860521292213303778000004
          0135821860521292215033927100005
