00773967530000000000
     00215239730000000001
          0135821860521292218539326200000
          0135821860521292214664245400001
          0135821860521292217460172700002
     00803120930000000002
          0135821860521292214765567000003
          0135821860521292210814422700004
          0135821860521292217806495500005
