<?xml version="1.0" encoding="UTF-8"?><documents version="1.34">
  <multi_pack action_id="915">
    <subject_id>00000000103090</subject_id>
    <operation_date>2020-07-24T07:38:37Z</operation_date>
    <by_sgtin>
      <detail>
        <sscc>584282520000000000</sscc>
        <content>
          <sgtin>571078363831561398892500001</sgtin>
          <sgtin>571078363831567023604700002</sgtin>
          <sgtin>571078363831568241076200005</sgtin>
          <sgtin>571078363831569272484500004</sgtin>
          <sgtin>571078363831567235368600003</sgtin>
          <sgtin>571078363831569397879100009</sgtin>
          <sgtin>571078363831561612931700000</sgtin>
          <sgtin>571078363831568594539600007</sgtin>
          <sgtin>571078363831562742494900006</sgtin>
          <sgtin>571078363831564437402100008</sgtin>
        </content>
      </detail>
    </by_sgtin>
  </multi_pack>
</documents>
