00299134390000000000
     00712763600000000001
          0135821860521292210348760600000
          0135821860521292211094164900001
          0135821860521292213916883800002
     00577358070000000002
          0135821860521292219412440100003
          0135821860521292218037004700004
          0135821860521292218056123500005
