00488833400000000000
     00605422090000000001
          0135821860521292218972057600000
          0135821860521292213654599500001
          0135821860521292212969349000002
     00086227820000000002
          0135821860521292215033761400003
          0135821860521292215285753000004
          0135821860521292218001149600005
