00013860380000000000
     00324866850000000001
          0135821860521292218646512400000
          0135821860521292214731686200001
          0135821860521292217777876800002
     00454984200000000002
          0135821860521292212892071800003
          0135821860521292212183311200004
          0135821860521292217561890200005
