00125310520000000000
     00996142910000000001
          0135821860521292216383501300000
          0135821860521292210937720800001
          0135821860521292216485579200002
     00429163940000000002
          0135821860521292212982451100003
          0135821860521292210586551700004
          0135821860521292216559677800005
