00724769930000000000
     00032788370000000001
          0135821860521292219994341000000
          0135821860521292215536607500001
          0135821860521292215594393300002
     00361037200000000002
          0135821860521292214142070800003
          0135821860521292211817295300004
          0135821860521292210902838900005
