<?xml version="1.0" encoding="UTF-8"?><documents version="1.34">
  <multi_pack action_id="915">
    <subject_id>00000000103090</subject_id>
    <operation_date>2020-07-24T10:53:19Z</operation_date>
    <by_sscc>
      <detail>
        <sscc>434335050000000000</sscc>
        <content>
          <sscc>537216420000000004</sscc>
          <sscc>813595040000000003</sscc>
          <sscc>459373560000000000</sscc>
          <sscc>738914850000000007</sscc>
          <sscc>872507720000000002</sscc>
          <sscc>933067120000000006</sscc>
          <sscc>845526390000000005</sscc>
          <sscc>445015980000000001</sscc>
          <sscc>747617880000000009</sscc>
          <sscc>599613890000000008</sscc>
        </content>
      </detail>
    </by_sscc>
  </multi_pack>
</documents>
