00361109470000000000
     00694838960000000001
          0135821860521292218561367900000
          0135821860521292218389267100001
          0135821860521292212490696400002
     00744992750000000002
          0135821860521292210348828400003
          0135821860521292210528318200004
          0135821860521292215718169500005
