00317895800000000000
     00816931160000000001
          0135821860521292212966801300000
          0135821860521292212904154400001
          0135821860521292214709767900002
     00512129840000000002
          0135821860521292211489662200003
          0135821860521292218417345700004
          0135821860521292215980086900005
