00683085500000000000
     00954345200000000001
          0135821860521292210941692700000
          0135821860521292216583381500001
          0135821860521292215531545700002
     00943142100000000002
          0135821860521292214982162200003
          0135821860521292218074690100004
          0135821860521292212005075100005
