00643726760000000000
     0135821860521292211277282900000
     0135821860521292212815524800001
     0135821860521292212300843600002
     0135821860521292215056379800003
00537540350000000001
     0135821860521292217553763300004
     0135821860521292216026969100005
     0135821860521292219289497900006
     0135821860521292214528963900007
00081551710000000002
     0135821860521292214459165200008
     0135821860521292213149651100009
     0135821860521292211055665100010
     0135821860521292211221870300011
