00524606980000000000
     00433115450000000001
          0135821860521292212184892300000
          0135821860521292219574431100001
          0135821860521292215670237900002
     00773690270000000002
          0135821860521292218505442000003
          0135821860521292219029087100004
          0135821860521292216535090600005
