0124777856538187210606289700000
0124777856538187214242605300001
0124777856538187219805654200002
0124777856538187212032219500003
0124777856538187219474677300004
0124777856538187211103878500005
0124777856538187215721028400006
0124777856538187211060468500007
0124777856538187217017874000008
0124777856538187218532143600009
0124777856538187216605759200010
