00069822300000000000
00554306690000000001
00612402490000000002
00289126150000000003
00583898640000000004
00658114950000000005
00175397740000000006
00407816330000000007
00404758790000000008
00356246970000000009
