<?xml version="1.0" encoding="UTF-8"?><documents version="1.34">
  <multi_pack action_id="915">
    <subject_id>c595b68c-3097-4540-b4e8-30dae3d67d30</subject_id>
    <operation_date>2020-07-24T07:39:12Z</operation_date>
    <by_sgtin>
      <detail>
        <sscc>263441200000000000</sscc>
        <content>
          <sgtin>939401950015888178914300004</sgtin>
          <sgtin>939401950015885984625000002</sgtin>
          <sgtin>939401950015887161482000000</sgtin>
          <sgtin>939401950015884495061100008</sgtin>
          <sgtin>939401950015881619035000007</sgtin>
          <sgtin>939401950015885478503300001</sgtin>
          <sgtin>939401950015883495699400006</sgtin>
          <sgtin>939401950015883347321700005</sgtin>
          <sgtin>939401950015881232389200003</sgtin>
          <sgtin>939401950015880923894300009</sgtin>
        </content>
      </detail>
    </by_sgtin>
  </multi_pack>
</documents>
