0182044132147770217288102700000
0182044132147770217482812400001
0182044132147770218238265900002
0182044132147770213395610200003
0182044132147770219735330400004
0182044132147770217132182800005
0182044132147770210252461700006
0182044132147770217675578600007
0182044132147770210839336400008
0182044132147770215865058900009
