00710058870000000000
     00909922140000000001
          0135821860521292215604623600000
          0135821860521292214409813200001
     00688841240000000002
          0135821860521292216485237400002
          0135821860521292212134962500003
00221131000000000003
     00661726870000000004
          0135821860521292215840761000004
          0135821860521292218799021200005
     00554321450000000005
          0135821860521292219678646100006
          0135821860521292214594862100007
