00839155300000000000
     00481636770000000001
          0135821860521292215237568100000
          0135821860521292210632028500001
          0135821860521292214232447700002
     00984182490000000002
          0135821860521292218075772300003
          0135821860521292219231694100004
          0135821860521292218950557900005
