0195336094554378217705220500000
0195336094554378214990486400001
0195336094554378215584819000002
0195336094554378210197469500003
0195336094554378214030830600004
0195336094554378210757739700005
0195336094554378214766016200006
0195336094554378210005230600007
0195336094554378218093808700008
0195336094554378219018998500009
