00163110100000000000
     00241770890000000001
          0135821860521292210743623300000
          0135821860521292217298481400001
          0135821860521292218648432900002
     00824715090000000002
          0135821860521292214220685700003
          0135821860521292210110707100004
          0135821860521292212703901300005
