00919818240000000000
     00536295690000000001
          0135821860521292214202689000000
          0135821860521292216993487500001
     00128125340000000002
          0135821860521292211591823500002
          0135821860521292217322136000003
00596422180000000003
     00938618940000000004
          0135821860521292217198644600004
          0135821860521292211786428400005
     00984110760000000005
          0135821860521292219036044500006
          0135821860521292218033426300007
