00987046300000000000
     0135821860521292216250667000000
     0135821860521292213430559400001
     0135821860521292215584158600002
     0135821860521292210616843000003
00216874630000000001
     0135821860521292213911228300004
     0135821860521292210213512500005
     0135821860521292213103195500006
     0135821860521292218936420800007
00880629650000000002
     0135821860521292213379508800008
     0135821860521292218380367900009
     0135821860521292214242054200010
     0135821860521292219098740000011
