00666819020000000000
     00040235870000000001
          0135821860521292211860887700000
          0135821860521292211565011500001
          0135821860521292216544806800002
     00739586000000000002
          0135821860521292214344368900003
          0135821860521292216543409500004
          0135821860521292212220914800005
