00113865660000000000
     00068829660000000001
          0135821860521292217257713200000
          0135821860521292215504664100001
          0135821860521292219870264500002
     00183669860000000002
          0135821860521292212143433300003
          0135821860521292218293968400004
          0135821860521292212004257900005
