00481006930000000000
     00816584270000000001
          0135821860521292212273747300000
          0135821860521292212851582600001
          0135821860521292217001589700002
          0135821860521292214923834700003
     00562764590000000002
          0135821860521292218197964000004
          0135821860521292217576329100005
          0135821860521292219960719400006
          0135821860521292212688894500007
     00114426360000000003
          0135821860521292213279671000008
          0135821860521292214152484700009
          0135821860521292210441510200010
          0135821860521292215386961700011
00692629220000000004
     00497251970000000005
          0135821860521292214067126900012
          0135821860521292214856675900013
          0135821860521292211068106900014
          0135821860521292218937452000015
     00207489690000000006
          0135821860521292217151175700016
          0135821860521292218144287500017
          0135821860521292214638412700018
          0135821860521292211530442400019
     00292439360000000007
          0135821860521292210396479900020
          0135821860521292212823789600021
          0135821860521292216950145000022
          0135821860521292216100227100023
