00480315250000000000
     00526669350000000001
          0135821860521292210967940500000
          0135821860521292210465996900001
          0135821860521292210431000400002
     00218192350000000002
          0135821860521292216644998400003
          0135821860521292217886466800004
          0135821860521292216745283300005
