00691465060000000000
     0135821860521292217585062100000
     0135821860521292215819674700001
     0135821860521292211084866100002
     0135821860521292218882768500003
00840354870000000001
     0135821860521292213651481300004
     0135821860521292212554568200005
     0135821860521292217240349600006
     0135821860521292215117771000007
00567024630000000002
     0135821860521292214759917900008
     0135821860521292218264740700009
     0135821860521292216966208800010
     0135821860521292212685487000011
