00704806360000000000
     0135821860521292210411853800000
     0135821860521292214880477900001
     0135821860521292213574198200002
     0135821860521292218231033200003
00212292150000000001
     0135821860521292210730746800004
     0135821860521292214318489100005
     0135821860521292219639579200006
     0135821860521292218095710600007
00948035020000000002
     0135821860521292211632307400008
     0135821860521292212872499600009
     0135821860521292217768874000010
     0135821860521292216329105800011
