00603517090000000000
     00811654070000000001
          0135821860521292219968709900000
          0135821860521292215797136400001
     00892188150000000002
          0135821860521292214268629700002
          0135821860521292214604445800003
00623655640000000003
     00583589740000000004
          0135821860521292210399189700004
          0135821860521292218601418800005
     00258829330000000005
          0135821860521292218148882900006
          0135821860521292212511521100007
