0103761721501162218933047000000
0103761721501162214921076000001
0103761721501162218130190400002
0103761721501162216452601000003
0103761721501162210045528500004
0103761721501162215854469600005
0103761721501162212768226100006
0103761721501162213130602800007
0103761721501162219837225800008
0103761721501162213002610300009
