00159754010000000000
     00601323660000000001
          0135821860521292218633311700000
          0135821860521292212607551800001
          0135821860521292212928157800002
     00255120530000000002
          0135821860521292216466136000003
          0135821860521292211082019500004
          0135821860521292213427235000005
