<?xml version="1.0" encoding="UTF-8"?><documents version="1.34">
  <multi_pack action_id="915">
    <subject_id>00000000103090</subject_id>
    <operation_date>2020-07-24T07:40:05Z</operation_date>
    <by_sscc>
      <detail>
        <sscc>327489530000000000</sscc>
        <content>
          <sscc>914264040000000003</sscc>
          <sscc>036651990000000002</sscc>
          <sscc>192623080000000005</sscc>
          <sscc>205794910000000006</sscc>
          <sscc>182666060000000009</sscc>
          <sscc>613961790000000000</sscc>
          <sscc>823043750000000004</sscc>
          <sscc>082680070000000007</sscc>
          <sscc>364444150000000001</sscc>
          <sscc>227165660000000008</sscc>
        </content>
      </detail>
    </by_sscc>
  </multi_pack>
</documents>
