0173674461983406213415428500000
0173674461983406216398559000001
0173674461983406218219675300002
0173674461983406215978187200003
0173674461983406211447181400004
0173674461983406218885837200005
0173674461983406212534198200006
0173674461983406214136208100007
0173674461983406211872751400008
0173674461983406217663821900009
