0127283282224364212757102300000
0127283282224364215899739100001
0127283282224364212620326400002
0127283282224364216413251300003
0127283282224364215106317500004
0127283282224364211534794500005
0127283282224364215102778900006
0127283282224364215773469500007
0127283282224364212935393500008
0127283282224364214095944600009
0127283282224364219394817400010
