00512481230000000000
     0135821860521292218002900300000
     0135821860521292211235665500001
     0135821860521292215237159800002
     0135821860521292219049309500003
00131637520000000001
     0135821860521292219178056500004
     0135821860521292211124559800005
     0135821860521292211784911300006
     0135821860521292216577719700007
00953750990000000002
     0135821860521292218915706800008
     0135821860521292216342685800009
     0135821860521292217722828900010
     0135821860521292218898441000011
