00240345470000000000
     00653015170000000001
          0135821860521292210328538300000
          0135821860521292215939834100001
          0135821860521292215478958000002
     00858878570000000002
          0135821860521292218859019400003
          0135821860521292216179270600004
          0135821860521292219470021500005
