0160531522990606212346459100000
0160531522990606212801174600001
0160531522990606212838930200002
0160531522990606213057284000003
0160531522990606213780349000004
0160531522990606219581801800005
0160531522990606214381122900006
0160531522990606218606986400007
0160531522990606211331750400008
0160531522990606212037484900009
