0162053782692530219754695300000
0162053782692530214854581100001
0162053782692530217925793200002
0162053782692530211992631400003
0162053782692530213825803300004
0162053782692530211673474800005
0162053782692530214363562900006
0162053782692530210318901100007
0162053782692530211286395300008
0162053782692530213455932600009
