00172462510000000000
     00125364870000000001
          0135821860521292218378862500000
          0135821860521292210948722200001
     00828719520000000002
          0135821860521292215723623000002
          0135821860521292215091324900003
