0118906409198872216953625800000
0118906409198872214243253600001
0118906409198872210271882800002
0118906409198872214059071100003
0118906409198872218102068000004
0118906409198872218406239500005
0118906409198872213604607400006
0118906409198872215537548000007
0118906409198872211582073400008
0118906409198872212368199200009
0118906409198872219019885300010
