00533339270000000000
     00007103980000000001
          0135821860521292216029659800000
          0135821860521292217293794800001
          0135821860521292210124495600002
     00142457800000000002
          0135821860521292213421816800003
          0135821860521292215687632600004
          0135821860521292212735467700005
