00252536980000000000
     00343302890000000001
          0135821860521292218407470800000
          0135821860521292218312435300001
          0135821860521292212328945600002
     00164026700000000002
          0135821860521292214367871900003
          0135821860521292214169661600004
          0135821860521292216259707900005
