<?xml version="1.0" encoding="UTF-8"?><documents version="1.34">
  <multi_pack action_id="915">
    <subject_id>00000000103090</subject_id>
    <operation_date>2020-07-24T10:33:17Z</operation_date>
    <by_sgtin>
      <detail>
        <sscc>670801140000000000</sscc>
        <content>
          <sgtin>581838631594178199124900000</sgtin>
          <sgtin>581838631594176574529100001</sgtin>
          <sgtin>581838631594171424871500002</sgtin>
          <sgtin>581838631594179028688600008</sgtin>
          <sgtin>581838631594172757643000003</sgtin>
          <sgtin>581838631594176494932700005</sgtin>
          <sgtin>581838631594177656862300006</sgtin>
          <sgtin>581838631594178614832900007</sgtin>
          <sgtin>581838631594171648964600004</sgtin>
          <sgtin>581838631594173133633400009</sgtin>
        </content>
      </detail>
    </by_sgtin>
  </multi_pack>
</documents>
