00166715660000000000
     00622573800000000001
          0135821860521292214901663800000
          0135821860521292216680704700001
          0135821860521292211977041200002
     00819111350000000002
          0135821860521292216620533800003
          0135821860521292219931395200004
          0135821860521292214566326800005
