00503623300000000000
     00634712500000000001
          0135821860521292214783452000000
          0135821860521292216163402600001
          0135821860521292214572114000002
          0135821860521292213373473900003
     00011498550000000002
          0135821860521292215713258600004
          0135821860521292214399397400005
          0135821860521292215149313600006
          0135821860521292217385708900007
     00875208500000000003
          0135821860521292217392257800008
          0135821860521292214612721800009
          0135821860521292216035280800010
          0135821860521292215812087400011
00086740920000000004
     00562055520000000005
          0135821860521292215818687300012
          0135821860521292210197148800013
          0135821860521292218109986000014
          0135821860521292212966321700015
     00137352510000000006
          0135821860521292213059509500016
          0135821860521292211036864600017
          0135821860521292213406327200018
          0135821860521292216826655600019
     00783482780000000007
          0135821860521292212363421400020
          0135821860521292212169159400021
          0135821860521292217820375000022
          0135821860521292213445567300023
