00371921590000000000
     00050217150000000001
          0135821860521292216931550200000
          0135821860521292210043637400001
          0135821860521292215296233200002
     00445002760000000002
          0135821860521292214314271200003
          0135821860521292211475591500004
          0135821860521292215751691600005
