{
  "clientId": "545c33b4-92d2-451e-b8ef-15b2ecb9da2b",
  "clientSecret": "bf43727f-291c-4f72-a149-81ec6eb8f09f",
  "mdlpSystemId": "93744a01-f49f-4b80-9324-59d24f53b570",
  "mdlpSystemName": "Utrace"
}