00450527130000000000
     00685192510000000001
          0135821860521292210440748100000
          0135821860521292217456983500001
          0135821860521292211859594300002
     00029787530000000002
          0135821860521292214871370500003
          0135821860521292211477012300004
          0135821860521292216343285400005
