00395470740000000000
     00540047100000000001
          0135821860521292215288005800000
          0135821860521292214172575900001
          0135821860521292215739975500002
     00103929390000000002
          0135821860521292216370840100003
          0135821860521292215396578800004
          0135821860521292214000708600005
