00888638010000000000
     0135821860521292214993294100000
     0135821860521292213924779200001
     0135821860521292211783257400002
00949204210000000001
     0135821860521292216109316700003
     0135821860521292212722784900004
     0135821860521292210034731600005
