[ {
  "data" : {
    "failed" : 26,
    "broken" : 124,
    "skipped" : 1,
    "passed" : 996,
    "unknown" : 24,
    "total" : 1171
  }
}, {
  "data" : {
    "failed" : 25,
    "broken" : 123,
    "skipped" : 1,
    "passed" : 998,
    "unknown" : 24,
    "total" : 1171
  }
} ]