{
  "reportName" : "Allure Report",
  "testRuns" : [ ],
  "statistic" : {
    "failed" : 26,
    "broken" : 124,
    "skipped" : 1,
    "passed" : 996,
    "unknown" : 24,
    "total" : 1171
  },
  "time" : {
    "start" : 1595584522128,
    "stop" : 1595595138364,
    "duration" : 10616236,
    "minDuration" : 0,
    "maxDuration" : 1446401,
    "sumDuration" : 9570553
  }
}